<?xml version="1.0" standalone="no"?>
<!DOCTYPE svg PUBLIC "-//W3C//DTD SVG 20010904//EN"
 "http://www.w3.org/TR/2001/REC-SVG-20010904/DTD/svg10.dtd">
<svg version="1.0" xmlns="http://www.w3.org/2000/svg"
 width="400.000000pt" height="400.000000pt" viewBox="0 0 400.000000 400.000000"
 preserveAspectRatio="xMidYMid meet">
<metadata>
Created by potrace 1.11, written by Peter Selinger 2001-2013
</metadata>
<g transform="translate(0.000000,400.000000) scale(0.100000,-0.100000)"
fill="#000000" stroke="none">
<path d="M1800 3989 c-365 -40 -719 -180 -1011 -399 -111 -83 -308 -283 -392
-395 -473 -639 -524 -1493 -132 -2185 120 -212 332 -455 522 -598 814 -614
1947 -528 2648 199 455 472 653 1140 525 1776 -164 818 -802 1439 -1629 1583
-135 24 -402 34 -531 19z m544 -218 c726 -147 1276 -699 1427 -1431 21 -101
24 -142 24 -340 0 -198 -3 -239 -24 -340 -151 -732 -702 -1285 -1427 -1431
-138 -27 -419 -37 -560 -19 -780 98 -1399 675 -1556 1452 -20 98 -23 143 -23
338 0 195 3 240 23 338 154 761 740 1322 1510 1447 135 22 466 14 606 -14z"/>
<path d="M1500 3344 c-345 -39 -506 -218 -549 -608 -7 -60 -11 -404 -11 -926
l0 -830 120 0 c66 0 120 -1 121 -2 0 -2 4 -62 8 -134 8 -174 15 -184 114 -184
39 0 77 4 83 8 28 18 38 62 42 184 l4 128 568 0 567 0 5 -131 c7 -173 14 -183
120 -187 63 -2 77 0 92 17 20 22 35 118 36 229 l0 72 120 0 121 0 -4 898 c-3
876 -4 899 -25 992 -46 202 -143 341 -288 410 -127 61 -149 63 -704 65 -278 2
-521 1 -540 -1z m969 -190 c38 -48 19 -108 -38 -125 -23 -6 -183 -9 -454 -7
l-419 3 -24 28 c-29 34 -31 66 -3 101 l20 26 449 0 449 0 20 -26z m226 -388
c41 -18 70 -70 91 -165 15 -66 40 -601 30 -627 -4 -12 -144 -14 -817 -14
l-812 0 6 283 c6 296 16 376 57 462 38 78 1 75 748 75 551 0 668 -2 697 -14z
m-1257 -1158 c74 -46 93 -160 39 -232 -92 -120 -287 -55 -287 97 0 77 34 126
107 153 45 16 95 10 141 -18z m1265 18 c71 -26 109 -78 109 -151 0 -121 -120
-197 -228 -145 -103 50 -124 179 -42 259 49 48 98 59 161 37z"/>
</g>
</svg>
